<svg width="211" height="213" viewBox="0 0 211 213" fill="none" xmlns="http://www.w3.org/2000/svg">
<g filter="url(#filter0_d)">
<rect x="54" y="54" width="103.22" height="105" rx="10" fill="#0C202C"/>
<path d="M120.032 116.669H121.032V115.669H120.032V116.669ZM120.032 123.797V124.797H121.032V123.797H120.032ZM91.4664 123.797H90.4664V124.797H91.4664V123.797ZM91.4664 118.127L90.7798 117.4L90.4664 117.696V118.127H91.4664ZM106.046 104.357L106.733 105.084L106.737 105.08L106.046 104.357ZM109.178 100.577L110.067 101.036L110.073 101.024L109.178 100.577ZM108.422 93.9346L107.788 94.7074L107.803 94.7196L107.818 94.7313L108.422 93.9346ZM99.4584 93.6646L99.8759 94.5733L99.886 94.5687L99.8959 94.5639L99.4584 93.6646ZM96.1104 96.4726L95.569 97.3133L96.3702 97.8294L96.9242 97.0539L96.1104 96.4726ZM89.7384 92.3686L88.9085 91.8108L88.3396 92.6572L89.197 93.2093L89.7384 92.3686ZM95.8404 87.2386L96.2675 88.1429L96.2776 88.138L95.8404 87.2386ZM112.094 86.7526L111.685 87.6651L111.695 87.6694L111.704 87.6734L112.094 86.7526ZM117.008 90.6406L116.182 91.2034L116.189 91.2136L116.196 91.2235L117.008 90.6406ZM117.494 102.305L118.396 102.737L117.494 102.305ZM112.472 108.461L111.792 107.727L111.786 107.733L112.472 108.461ZM103.778 116.669L103.092 115.941L101.263 117.669H103.778V116.669ZM119.032 116.669V123.797H121.032V116.669H119.032ZM120.032 122.797H91.4664V124.797H120.032V122.797ZM92.4664 123.797V118.127H90.4664V123.797H92.4664ZM92.1531 118.854L106.733 105.084L105.36 103.63L90.7798 117.4L92.1531 118.854ZM106.737 105.08C108.31 103.58 109.45 102.228 110.067 101.036L108.29 100.117C107.827 101.013 106.879 102.181 105.356 103.633L106.737 105.08ZM110.073 101.024C110.671 99.8267 110.988 98.6125 110.988 97.3906H108.988C108.988 98.2568 108.765 99.1665 108.284 100.129L110.073 101.024ZM110.988 97.3906C110.988 95.6205 110.361 94.1498 109.027 93.1379L107.818 94.7313C108.572 95.3035 108.988 96.1368 108.988 97.3906H110.988ZM109.057 93.1619C107.798 92.1277 106.037 91.6926 103.94 91.6926V93.6926C105.804 93.6926 107.031 94.0855 107.788 94.7074L109.057 93.1619ZM103.94 91.6926C102.151 91.6926 100.505 92.0436 99.021 92.7654L99.8959 94.5639C101.076 93.9896 102.418 93.6926 103.94 93.6926V91.6926ZM99.0409 92.756C97.5416 93.4448 96.2921 94.4979 95.2967 95.8914L96.9242 97.0539C97.7288 95.9274 98.7113 95.1084 99.8759 94.5733L99.0409 92.756ZM96.6519 95.6319L90.2799 91.5279L89.197 93.2093L95.569 97.3133L96.6519 95.6319ZM90.5684 92.9265C91.9354 90.8926 93.8245 89.2965 96.2674 88.1429L95.4134 86.3344C92.6724 87.6288 90.4934 89.4527 88.9085 91.8108L90.5684 92.9265ZM96.2776 88.138C98.713 86.9541 101.529 86.3486 104.75 86.3486V84.3486C101.275 84.3486 98.1519 85.0031 95.4032 86.3393L96.2776 88.138ZM104.75 86.3486C107.449 86.3486 109.752 86.7984 111.685 87.6651L112.503 85.8401C110.261 84.8349 107.668 84.3486 104.75 84.3486V86.3486ZM111.704 87.6734C113.675 88.5083 115.151 89.6897 116.182 91.2034L117.835 90.0778C116.562 88.2075 114.762 86.797 112.485 85.8319L111.704 87.6734ZM116.196 91.2235C117.248 92.6906 117.79 94.4431 117.79 96.5266H119.79C119.79 94.0742 119.145 91.9027 117.821 90.0577L116.196 91.2235ZM117.79 96.5266C117.79 98.4331 117.39 100.211 116.593 101.872L118.396 102.737C119.327 100.799 119.79 98.7241 119.79 96.5266H117.79ZM116.593 101.872C115.808 103.506 114.239 105.458 111.792 107.727L113.152 109.194C115.673 106.856 117.453 104.703 118.396 102.737L116.593 101.872ZM111.786 107.733L103.092 115.941L104.465 117.396L113.159 109.188L111.786 107.733ZM103.778 117.669H120.032V115.669H103.778V117.669Z" fill="#13C2C2"/>
<rect x="54.5" y="54.5" width="102.22" height="104" rx="9.5" stroke="#13C2C2"/>
</g>
<defs>
<filter id="filter0_d" x="0.610168" y="0.610168" width="210" height="211.78" filterUnits="userSpaceOnUse" color-interpolation-filters="sRGB">
<feFlood flood-opacity="0" result="BackgroundImageFix"/>
<feColorMatrix in="SourceAlpha" type="matrix" values="0 0 0 0 0 0 0 0 0 0 0 0 0 0 0 0 0 0 127 0"/>
<feOffset/>
<feGaussianBlur stdDeviation="26.6949"/>
<feColorMatrix type="matrix" values="0 0 0 0 0 0 0 0 0 0 0 0 0 0 0 0 0 0 0.07 0"/>
<feBlend mode="normal" in2="BackgroundImageFix" result="effect1_dropShadow"/>
<feBlend mode="normal" in="SourceGraphic" in2="effect1_dropShadow" result="shape"/>
</filter>
</defs>
</svg>
