<svg width="43" height="34" viewBox="0 0 43 34" fill="none" xmlns="http://www.w3.org/2000/svg">
<path fill-rule="evenodd" clip-rule="evenodd" d="M42.9999 7.51248C42.9999 8.2477 42.8796 8.95485 42.6578 9.61532C41.7859 12.2111 40.0288 14.6741 40.0288 17.4124C40.0288 20.1508 41.7859 22.6137 42.6578 25.2095C42.8796 25.87 42.9999 26.5772 42.9999 27.3124C42.9999 30.9575 40.0449 33.9124 36.3998 33.9124C32.7548 33.9124 29.7998 30.9575 29.7998 27.3124C29.7998 26.7199 29.8779 26.1457 30.0243 25.5995C30.7249 22.9854 32.3617 20.5075 32.3617 17.8011V17.0237C32.3617 14.3174 30.7249 11.8395 30.0243 9.22542C29.8779 8.67915 29.7998 8.10494 29.7998 7.51248C29.7998 3.8674 32.7548 0.912476 36.3998 0.912476C40.0449 0.912476 42.9999 3.8674 42.9999 7.51248ZM12.307 4.19485C13.3244 5.94105 14.136 7.93207 15.7573 9.13854L16.704 9.84296C18.0451 10.8409 19.8284 10.9124 21.5001 10.9124C25.1452 10.9124 28.1001 13.8673 28.1001 17.5124C28.1001 21.1575 25.1452 24.1124 21.5001 24.1124C17.855 24.1124 14.9001 21.1575 14.9001 17.5124C14.9001 16.9164 14.6719 16.3262 14.1937 15.9704L13.9707 15.8045C12.5942 14.7802 10.6385 15.7626 10.6385 17.4784V20.3593C10.6385 21.4522 11.193 22.449 11.855 23.3186C12.6989 24.4274 13.2 25.8114 13.2 27.3124C13.2 30.9575 10.2451 33.9124 6.60001 33.9124C2.95492 33.9124 0 30.9575 0 27.3124C0 26.5769 0.120297 25.8696 0.342288 25.2089C1.21443 22.6133 2.97153 20.1505 2.97153 17.4123C2.97153 14.6742 1.21458 12.2116 0.34249 9.61606C0.120509 8.95541 0.000218362 8.24805 0.000218362 7.51261C0.000218362 3.86752 2.95514 0.9126 6.60023 0.9126C9.03582 0.9126 11.1633 2.2319 12.307 4.19485Z" fill="#13C2C2"/>
</svg>
